<svg xmlns="http://www.w3.org/2000/svg" width="28" height="24" viewBox="0 0 28 24">
  <g fill="none" fill-rule="evenodd">
    <path d="m-1-3h30v30h-30z"/>
    <g stroke-linecap="round" stroke-linejoin="round" stroke-width="2" transform="translate(1 1)">
      <path d="m23 0h-20.2c-1.5 0-2.8 1.24170404-2.8 2.67443946v15.95112104c0 1.4327355 1.3 2.6744395 2.8 2.6744395h20.1c1.5 0 2.8-1.241704 2.8-2.6744395v-15.95112104c.1-1.43273542-1.2-2.67443946-2.7-2.67443946z"/>
      <path d="m21.8378514 6.1651623-8.9851448 8.2356093-8.98514489-8.2356093m2.36848527 8.2356093 3.22124017-3.0661343zm13.03676022 0-2.9506559-3.0661343z"/>
    </g>
  </g>
</svg>
