<svg xmlns="http://www.w3.org/2000/svg" xmlns:xlink="http://www.w3.org/1999/xlink" width="252" height="187" viewBox="0 0 252 187">
  <defs>
    <path id="container-units-a" d="m0 0h252v186.26087h-252z"/>
    <rect id="container-units-b" width="2.5" height="21" rx="1.25"/>
    <rect id="container-units-c" width="2.5" height="21" x="12.5" rx="1.25"/>
    <rect id="container-units-d" width="2.5" height="21" rx="1.25"/>
    <rect id="container-units-e" width="2.5" height="21" x="12.5" rx="1.25"/>
    <rect id="container-units-f" width="2.5" height="21" rx="1.25"/>
    <rect id="container-units-g" width="2.5" height="21" x="12.5" rx="1.25"/>
    <rect id="container-units-h" width="2.5" height="21" rx="1.25"/>
    <rect id="container-units-i" width="2.5" height="21" x="12.5" rx="1.25"/>
    <rect id="container-units-j" width="2.5" height="21" rx="1.25"/>
    <rect id="container-units-k" width="2.5" height="21" x="12.5" rx="1.25"/>
    <rect id="container-units-l" width="2.5" height="21" rx="1.25"/>
    <rect id="container-units-m" width="2.5" height="21" x="12.5" rx="1.25"/>
    <rect id="container-units-n" width="2.5" height="21" rx="1.25"/>
    <rect id="container-units-o" width="2.5" height="21" x="12.5" rx="1.25"/>
    <rect id="container-units-p" width="2.5" height="21" rx="1.25"/>
    <rect id="container-units-q" width="2.5" height="21" x="12.5" rx="1.25"/>
    <rect id="container-units-r" width="2.5" height="21" rx="1.25"/>
    <rect id="container-units-s" width="2.5" height="21" x="12.5" rx="1.25"/>
    <rect id="container-units-t" width="2.5" height="21" rx="1.25"/>
    <rect id="container-units-u" width="2.5" height="21" x="12.5" rx="1.25"/>
    <rect id="container-units-v" width="2.5" height="21" rx="1.25"/>
    <rect id="container-units-w" width="2.5" height="21" x="12.5" rx="1.25"/>
    <rect id="container-units-x" width="2.5" height="21" rx="1.25"/>
    <rect id="container-units-y" width="2.5" height="21" x="12.5" rx="1.25"/>
  </defs>
  <g fill="none" fill-rule="evenodd">
    <use fill="#523beb" xlink:href="#container-units-a"/>
    <use fill="#5443c4" xlink:href="#container-units-a"/>
    <use fill="#602087" xlink:href="#container-units-a"/>
    <g fill="#f35f4a" stroke="#f35f4a" opacity=".2" transform="translate(8.217 41.924)">
      <path d="M221.02914.5v101.41294h14.036077v-101.41294zM200.981036.5v101.41294h14.036078v-101.41294zM180.932932.5v101.41294h14.036078v-101.41294zM160.884829.5v101.41294h14.036078v-101.41294zM140.836725.5v101.41294h14.036078v-101.41294zM120.788622.5v101.41294h14.036077v-101.41294zM100.740518.5v101.41294h14.036078v-101.41294zM80.6924144.5v101.41294h14.0360777v-101.41294zM60.6443108.5v101.41294h14.0360777v-101.41294zM40.5962072.5v101.41294h14.0360777v-101.41294zM20.5481036.5v101.41294h14.0360777v-101.41294zM.5.5v101.41294h14.0360777v-101.41294z"/>
    </g>
    <g transform="translate(229.174 105)">
      <use fill="#f35f4a" xlink:href="#container-units-b"/>
      <use fill="#ff7c40" xlink:href="#container-units-b"/>
      <use fill="#40ffd2" xlink:href="#container-units-b"/>
    </g>
    <g transform="translate(229.174 105)">
      <use fill="#f35f4a" xlink:href="#container-units-c"/>
      <use fill="#ff7c40" xlink:href="#container-units-c"/>
      <use fill="#40ffd2" xlink:href="#container-units-c"/>
    </g>
    <g transform="translate(209.087 77.609)">
      <use fill="#f35f4a" xlink:href="#container-units-d"/>
      <use fill="#ff7c40" xlink:href="#container-units-d"/>
      <use fill="#40ffd2" xlink:href="#container-units-d"/>
    </g>
    <g transform="translate(209.087 77.609)">
      <use fill="#f35f4a" xlink:href="#container-units-e"/>
      <use fill="#ff7c40" xlink:href="#container-units-e"/>
      <use fill="#40ffd2" xlink:href="#container-units-e"/>
    </g>
    <g transform="translate(189 49.304)">
      <use fill="#f35f4a" xlink:href="#container-units-f"/>
      <use fill="#ff7c40" xlink:href="#container-units-f"/>
      <use fill="#40ffd2" xlink:href="#container-units-f"/>
    </g>
    <g transform="translate(189 49.304)">
      <use fill="#f35f4a" xlink:href="#container-units-g"/>
      <use fill="#ff7c40" xlink:href="#container-units-g"/>
      <use fill="#40ffd2" xlink:href="#container-units-g"/>
    </g>
    <g transform="translate(168.913 85.826)">
      <use fill="#f35f4a" xlink:href="#container-units-h"/>
      <use fill="#ff7c40" xlink:href="#container-units-h"/>
      <use fill="#40ffd2" xlink:href="#container-units-h"/>
    </g>
    <g transform="translate(168.913 85.826)">
      <use fill="#f35f4a" xlink:href="#container-units-i"/>
      <use fill="#ff7c40" xlink:href="#container-units-i"/>
      <use fill="#40ffd2" xlink:href="#container-units-i"/>
    </g>
    <g transform="translate(148.826 149.74)">
      <use fill="#f35f4a" xlink:href="#container-units-j"/>
      <use fill="#ff7c40" xlink:href="#container-units-j"/>
      <use fill="#40ffd2" xlink:href="#container-units-j"/>
    </g>
    <g transform="translate(148.826 149.74)">
      <use fill="#f35f4a" xlink:href="#container-units-k"/>
      <use fill="#ff7c40" xlink:href="#container-units-k"/>
      <use fill="#40ffd2" xlink:href="#container-units-k"/>
    </g>
    <g transform="translate(128.74 107.74)">
      <use fill="#f35f4a" xlink:href="#container-units-l"/>
      <use fill="#ff7c40" xlink:href="#container-units-l"/>
      <use fill="#40ffd2" xlink:href="#container-units-l"/>
    </g>
    <g transform="translate(128.74 107.74)">
      <use fill="#f35f4a" xlink:href="#container-units-m"/>
      <use fill="#ff7c40" xlink:href="#container-units-m"/>
      <use fill="#40ffd2" xlink:href="#container-units-m"/>
    </g>
    <g transform="translate(108.652 32.87)">
      <use fill="#f35f4a" xlink:href="#container-units-n"/>
      <use fill="#ff7c40" xlink:href="#container-units-n"/>
      <use fill="#40ffd2" xlink:href="#container-units-n"/>
    </g>
    <g transform="translate(108.652 32.87)">
      <use fill="#f35f4a" xlink:href="#container-units-o"/>
      <use fill="#ff7c40" xlink:href="#container-units-o"/>
      <use fill="#40ffd2" xlink:href="#container-units-o"/>
    </g>
    <g transform="translate(88.565 83.087)">
      <use fill="#f35f4a" xlink:href="#container-units-p"/>
      <use fill="#ff7c40" xlink:href="#container-units-p"/>
      <use fill="#40ffd2" xlink:href="#container-units-p"/>
    </g>
    <g transform="translate(88.565 83.087)">
      <use fill="#f35f4a" xlink:href="#container-units-q"/>
      <use fill="#ff7c40" xlink:href="#container-units-q"/>
      <use fill="#40ffd2" xlink:href="#container-units-q"/>
    </g>
    <g transform="translate(68.478 115.957)">
      <use fill="#f35f4a" xlink:href="#container-units-r"/>
      <use fill="#ff7c40" xlink:href="#container-units-r"/>
      <use fill="#40ffd2" xlink:href="#container-units-r"/>
    </g>
    <g transform="translate(68.478 115.957)">
      <use fill="#f35f4a" xlink:href="#container-units-s"/>
      <use fill="#ff7c40" xlink:href="#container-units-s"/>
      <use fill="#40ffd2" xlink:href="#container-units-s"/>
    </g>
    <g transform="translate(48.391 91.304)">
      <use fill="#f35f4a" xlink:href="#container-units-t"/>
      <use fill="#ff7c40" xlink:href="#container-units-t"/>
      <use fill="#40ffd2" xlink:href="#container-units-t"/>
    </g>
    <g transform="translate(48.391 91.304)">
      <use fill="#f35f4a" xlink:href="#container-units-u"/>
      <use fill="#ff7c40" xlink:href="#container-units-u"/>
      <use fill="#40ffd2" xlink:href="#container-units-u"/>
    </g>
    <g transform="translate(28.304 61.174)">
      <use fill="#f35f4a" xlink:href="#container-units-v"/>
      <use fill="#ff7c40" xlink:href="#container-units-v"/>
      <use fill="#40ffd2" xlink:href="#container-units-v"/>
    </g>
    <g transform="translate(28.304 61.174)">
      <use fill="#f35f4a" xlink:href="#container-units-w"/>
      <use fill="#ff7c40" xlink:href="#container-units-w"/>
      <use fill="#40ffd2" xlink:href="#container-units-w"/>
    </g>
    <g transform="translate(8.217 85.826)">
      <use fill="#f35f4a" xlink:href="#container-units-x"/>
      <use fill="#ff7c40" xlink:href="#container-units-x"/>
      <use fill="#40ffd2" xlink:href="#container-units-x"/>
      <g>
        <use fill="#f35f4a" xlink:href="#container-units-y"/>
        <use fill="#ff7c40" xlink:href="#container-units-y"/>
        <use fill="#40ffd2" xlink:href="#container-units-y"/>
      </g>
    </g>
  </g>
</svg>
